Time Perspective of Nations: ggplot workshop
…
(  TP <- read_csv("time_perspective_data.csv")  )

## Parsed with column specification:
## cols(
##   country = col_character(),
##   year = col_integer(),
##   gdp = col_double(),
##   future_focus = col_double(),
##   future_horizon = col_double(),
##   past_focus = col_double(),
##   past_horizon = col_double()
## )

## # A tibble: 172 x 7
##    country    year    gdp future_focus future_horizon past_focus past_horizon
##    <chr>     <int>  <dbl>        <dbl>          <dbl>      <dbl>        <dbl>
##  1 Argentina  2008  8223.        0.252        0.172        0.           0.574
##  2 Argentina  2009  7667.        0.398        0.151        0.           0.511
##  3 Argentina  2010  9124.        0.607        0.0366       0.138        0.378
##  4 Argentina  2011 10942.        0.439        0.0696       0.           0.244
##  5 Hungary    2008 15365.        0.129        0.0375       0.186        0.441
##  6 Hungary    2009 12635.        0.201        0.193        0.181        0.339
##  7 Hungary    2010 12863.        0.224        0.00490      0.298        0.511
##  8 Hungary    2011 14044.        0.232        0.0457       0.188        0.327
##  9 Nigeria    2008  1375.        0.134        0.437        0.156        0.436
## 10 Nigeria    2009  1091.        0.515        0.518        0.221        0.387
## # ... with 162 more rows

Reshape the data into long format

Marvel at the power of gather() and separate()

TP.long <- TP %>% gather(time.attitude, time.score, c(future_focus, future_horizon, past_focus, past_horizon)) %>% separate(time.attitude, into=c("time.direction", "time.type"), sep="_")
TP.long

## # A tibble: 688 x 6
##    country    year    gdp time.direction time.type time.score
##    <chr>     <int>  <dbl> <chr>          <chr>          <dbl>
##  1 Argentina  2008  8223. future         focus          0.252
##  2 Argentina  2009  7667. future         focus          0.398
##  3 Argentina  2010  9124. future         focus          0.607
##  4 Argentina  2011 10942. future         focus          0.439
##  5 Hungary    2008 15365. future         focus          0.129
##  6 Hungary    2009 12635. future         focus          0.201
##  7 Hungary    2010 12863. future         focus          0.224
##  8 Hungary    2011 14044. future         focus          0.232
##  9 Nigeria    2008  1375. future         focus          0.134
## 10 Nigeria    2009  1091. future         focus          0.515
## # ... with 678 more rows
…
