Repeated Measures
…
intervention <- read_csv("well-being.csv")

## Parsed with column specification:
## cols(
##   sub = col_character(),
##   sex = col_character(),
##   time = col_integer(),
##   well.being = col_integer()
## )

intervention <- intervention %>% mutate(time=as.factor(time))
intervention <- arrange(intervention, sub, time)
intervention

## # A tibble: 40 x 4
##    sub   sex   time  well.being
##    <chr> <chr> <fct>      <int>
##  1 s1    Male  1              6
##  2 s1    Male  2              6
##  3 s1    Male  3              8
##  4 s1    Male  4              8
##  5 s1    Male  5              8
##  6 s2    Male  1              4
##  7 s2    Male  2              5
##  8 s2    Male  3              6
##  9 s2    Male  4              7
## 10 s2    Male  5              7
## # ... with 30 more rows
…
